{
  "key": "${addon.key}",
  "baseUrl": "${addon.base-url}",
  "name": "Acspring Gcp (Spring Boot)",
  "authentication": {
    "type": "jwt"
  },
  "lifecycle": {
    "installed": "/installed",
    "uninstalled": "/uninstalled"
  },
  "scopes": [
    "READ"
  ],
  "modules": {
    "generalPages": [
      {
        "key": "Example",
        "location": "system.top.navigation.bar",
        "name": {
          "value": "Example"
        },
        "url": "/iframe",
        "conditions": [{
          "condition": "user_is_logged_in"
        }]
      }
    ]
  }
}
